{
  "type" : "FeatureCollection",
  "features" : [{
     "type":"Feature",
     "id" : "sixth",
     "properties" : {
        "srid"          : "4326",
        "id"            : "3365028",
        "name"          : "Sixth District",
        "localname"     : "Sixth District",
        "official_name" : "",
        "boundary"      : "adminstrative",
        "admin_level"   : "7",
        "note"          : "",
        "wikidata"      : "",
        "wikipedia"     : "",
        "timestamp"     : "2018-03-08 04:06:00",
        "rpath"         : "3365028,103703,147488,443174,0",
        "alltags"       : {
           "name" : "Sixth District",
           "is_in" : "Manila",
           "boundary" : "administrative",
           "admin_level" : "7"}
     },
     "geometry": {"type":"MultiPolygon","coordinates":[[[[120.982772,14.594724],[120.983475,14.594978],[120.984436,14.595509],[120.984882,14.595385],[120.985466,14.59526],[120.985807,14.595329],[120.985993,14.595335],[120.986822,14.595185],[120.987937,14.594476],[120.988724,14.59378],[120.988975,14.59354],[120.989239,14.593366],[120.989587,14.59326],[120.990114,14.593346],[120.99027,14.59342],[120.990382,14.593524],[120.990452,14.59362],[120.990508,14.593774],[120.990585,14.593965],[120.990781,14.594523],[120.991044,14.595434],[120.990951,14.595988],[120.990916,14.596287],[120.990799,14.596434],[120.990738,14.596598],[120.990646,14.59676],[120.990555,14.597167],[120.990529,14.59733],[120.990635,14.597726],[120.99068,14.598055],[120.990786,14.598223],[120.991043,14.598474],[120.991095,14.598873],[120.991231,14.59946],[120.991281,14.599789],[120.991381,14.600029],[120.991494,14.60037],[120.991538,14.600528],[120.991656,14.600647],[120.991828,14.600694],[120.992019,14.600696],[120.992136,14.600652],[120.992523,14.600532],[120.992996,14.600627],[120.99349,14.600802],[120.993597,14.600814],[120.993699,14.600794],[120.993816,14.600685],[120.993957,14.600447],[120.994088,14.600313],[120.994498,14.600233],[120.994724,14.600204],[120.995132,14.600202],[120.995501,14.600202],[120.995674,14.600083],[120.995804,14.599902],[120.996062,14.599421],[120.996161,14.599501],[120.996235,14.599519],[120.996384,14.599532],[120.996848,14.599534],[120.996947,14.59955],[120.996976,14.599596],[120.996967,14.599743],[120.997011,14.599972],[120.997105,14.600085],[120.997236,14.600159],[120.99736,14.600163],[120.997491,14.600125],[120.997608,14.600059],[120.997822,14.600003],[120.997911,14.600003],[120.997989,14.600094],[120.998005,14.600292],[120.998026,14.60045],[120.998067,14.600543],[120.998143,14.600574],[120.998233,14.600574],[120.998322,14.600474],[120.998446,14.60027],[120.99852,14.600234],[120.998658,14.600263],[120.998883,14.600393],[120.999327,14.601177],[121.000147,14.601255],[121.001829,14.60142],[121.003197,14.601559],[121.005282,14.601758],[121.008861,14.602057],[121.012132,14.602356],[121.014629,14.602589],[121.015127,14.602639],[121.015608,14.602738],[121.015891,14.602905],[121.016423,14.603403],[121.017513,14.604495],[121.01765,14.604378],[121.018233,14.603896],[121.01858,14.603608],[121.018776,14.603449],[121.018841,14.603395],[121.019248,14.603062],[121.019384,14.602951],[121.01959,14.602745],[121.01954,14.602527],[121.019571,14.602336],[121.019637,14.602179],[121.019781,14.601978],[121.019939,14.601833],[121.020257,14.60162],[121.021283,14.600997],[121.023025,14.599956],[121.023566,14.599503],[121.024131,14.598695],[121.024864,14.597491],[121.025481,14.596221],[121.025745,14.59567],[121.025927,14.59529],[121.025997,14.595025],[121.026167,14.594377],[121.026124,14.593787],[121.02592,14.593219],[121.025702,14.592854],[121.025379,14.592487],[121.023263,14.5894],[121.022802,14.588827],[121.020722,14.586197],[121.020376,14.585891],[121.020313,14.585458],[121.020067,14.58474],[121.019762,14.584126],[121.019526,14.583794],[121.018525,14.582516],[121.017729,14.581801],[121.017162,14.58116],[121.01707,14.580606],[121.017285,14.579787],[121.017431,14.579617],[121.017671,14.579432],[121.017189,14.579342],[121.016566,14.579237],[121.016351,14.579208],[121.01622,14.579078],[121.016,14.578857],[121.015812,14.578668],[121.015605,14.578467],[121.015357,14.578214],[121.015136,14.577982],[121.014934,14.577795],[121.014719,14.577582],[121.014462,14.57732],[121.014196,14.577046],[121.013964,14.576812],[121.0137,14.576576],[121.013444,14.57629],[121.01317,14.576016],[121.01294,14.57579],[121.012729,14.575578],[121.012428,14.575275],[121.012417,14.575264],[121.012401,14.575245],[121.012383,14.575229],[121.012154,14.575024],[121.011975,14.575255],[121.011899,14.57536],[121.011828,14.5755],[121.011746,14.575756],[121.011647,14.576192],[121.011598,14.576319],[121.011527,14.57643],[121.01136,14.576691],[121.011179,14.576939],[121.011105,14.577022],[121.011065,14.577066],[121.010931,14.577189],[121.01088,14.577225],[121.010273,14.577709],[121.009435,14.578401],[121.008987,14.578791],[121.008761,14.578978],[121.008176,14.579442],[121.007492,14.57999],[121.007329,14.58012],[121.006772,14.57999],[121.006096,14.57985],[121.005829,14.579795],[121.005629,14.579748],[121.005065,14.579617],[121.004801,14.579553],[121.00434,14.579445],[121.004316,14.57944],[121.004257,14.57946],[121.004248,14.579572],[121.004279,14.579781],[121.00443,14.580413],[121.004573,14.58077],[121.004757,14.581013],[121.004855,14.581146],[121.004966,14.581254],[121.005069,14.581304],[121.005218,14.58143],[121.005275,14.581503],[121.005287,14.581563],[121.005245,14.581623],[121.005146,14.581627],[121.004966,14.581627],[121.004792,14.581648],[121.004688,14.581731],[121.004663,14.581867],[121.00468,14.581967],[121.004546,14.582031],[121.004377,14.582075],[121.00413,14.582064],[121.003883,14.582096],[121.00369,14.582096],[121.003354,14.582077],[121.002682,14.582189],[121.002229,14.582297],[121.001818,14.582399],[121.001596,14.582422],[121.001399,14.582466],[121.001199,14.582559],[121.001033,14.58269],[121.000878,14.582884],[121.000748,14.583116],[121.000595,14.58337],[120.99965,14.584542],[120.999307,14.585115],[120.998998,14.585613],[120.998784,14.586178],[120.998595,14.58705],[120.998552,14.587399],[120.9985,14.587723],[120.998423,14.587972],[120.998372,14.58803],[120.998132,14.587935],[120.998003,14.587752],[120.998038,14.587453],[120.997978,14.587204],[120.997815,14.587088],[120.997435,14.586988],[120.997309,14.586887],[120.997271,14.586788],[120.997295,14.586676],[120.997591,14.586451],[120.997694,14.586241],[120.99766,14.586016],[120.997411,14.585792],[120.997128,14.585684],[120.996749,14.585606],[120.996649,14.58553],[120.996579,14.585302],[120.996441,14.585078],[120.996261,14.585019],[120.996081,14.585019],[120.995901,14.585136],[120.995686,14.58541],[120.995548,14.585748],[120.995526,14.58593],[120.995583,14.586216],[120.995523,14.58644],[120.995265,14.586606],[120.995017,14.586739],[120.994802,14.58693],[120.994699,14.587204],[120.994604,14.587545],[120.994536,14.587827],[120.994381,14.587885],[120.993935,14.58757],[120.993798,14.587437],[120.993583,14.587403],[120.993299,14.587383],[120.99317,14.587374],[120.992501,14.587864],[120.992089,14.588437],[120.991908,14.588769],[120.991524,14.58916],[120.99131,14.589434],[120.991206,14.58951],[120.990532,14.589721],[120.989684,14.58955],[120.989073,14.589597],[120.988597,14.589757],[120.988155,14.589827],[120.987751,14.589879],[120.987383,14.590001],[120.987099,14.5902],[120.986688,14.590627],[120.986306,14.590906],[120.985703,14.591602],[120.985358,14.591813],[120.984749,14.592291],[120.983755,14.593263],[120.983148,14.594075],[120.982772,14.594724]]]]}
  }]
}